^C:\USERS\RUSLA\SOURCE\REPOS\2XARRAY\DEBUG\2XARRAY.OBJ
C:\USERS\RUSLA\SOURCE\REPOS\2XARRAY\DEBUG\2XARRAY.EXE
C:\USERS\RUSLA\SOURCE\REPOS\2XARRAY\DEBUG\2XARRAY.ILK
C:\USERS\RUSLA\SOURCE\REPOS\2XARRAY\DEBUG\2XARRAY.PDB
